<?xml version="1.0" encoding="UTF-8" standalone="no"?>
<!DOCTYPE svg PUBLIC "-//W3C//DTD SVG 1.1//EN" "http://www.w3.org/Graphics/SVG/1.1/DTD/svg11.dtd">
<svg width="100%" height="100%" viewBox="0 0 438 355" version="1.1" xmlns="http://www.w3.org/2000/svg" xmlns:xlink="http://www.w3.org/1999/xlink" xml:space="preserve" xmlns:serif="http://www.serif.com/" style="fill-rule:evenodd;clip-rule:evenodd;stroke-linejoin:round;stroke-miterlimit:2;">
    <g transform="matrix(1,0,0,1,-181.374,-137.678)">
        <g>
            <g transform="matrix(1,0,0,1,79.15,0)">
                <g transform="matrix(1.21807,0,0,1.21807,-22.2918,-30.0234)">
                    <g transform="matrix(99.4108,0,0,99.4108,99.3407,208.273)">
                        <path d="M0.53,-0.619C0.562,-0.591 0.587,-0.559 0.605,-0.523C0.623,-0.486 0.634,-0.449 0.639,-0.41C0.643,-0.371 0.64,-0.332 0.629,-0.293C0.619,-0.254 0.601,-0.217 0.576,-0.183L0.551,-0.147L0.55,-0.147L0.55,-0.146C0.533,-0.119 0.512,-0.096 0.488,-0.076C0.463,-0.056 0.436,-0.04 0.407,-0.027C0.393,-0.021 0.376,-0.016 0.355,-0.013C0.334,-0.009 0.312,-0.006 0.289,-0.004C0.266,-0.002 0.242,-0.001 0.219,-0C0.195,0.001 0.173,0.001 0.152,0.001C0.139,0.001 0.126,0.001 0.114,0C0.101,0 0.089,-0 0.078,-0L0.035,-0C0.031,-0 0.029,-0.002 0.029,-0.006L0.029,-0.647C0.029,-0.647 0.029,-0.647 0.03,-0.648L0.03,-0.65L0.066,-0.706C0.066,-0.707 0.066,-0.707 0.067,-0.707L0.068,-0.708L0.07,-0.708C0.07,-0.708 0.07,-0.708 0.071,-0.709C0.108,-0.709 0.147,-0.709 0.188,-0.71C0.229,-0.711 0.269,-0.709 0.309,-0.704C0.349,-0.699 0.388,-0.691 0.426,-0.678C0.464,-0.665 0.499,-0.646 0.53,-0.619ZM0.587,-0.223C0.605,-0.255 0.617,-0.289 0.624,-0.324C0.63,-0.359 0.63,-0.393 0.625,-0.427C0.619,-0.461 0.607,-0.494 0.59,-0.525C0.573,-0.556 0.55,-0.585 0.522,-0.61C0.492,-0.637 0.459,-0.656 0.422,-0.669C0.385,-0.681 0.346,-0.689 0.307,-0.693C0.268,-0.697 0.228,-0.699 0.188,-0.698C0.148,-0.697 0.11,-0.697 0.074,-0.697L0.047,-0.652C0.052,-0.653 0.057,-0.653 0.062,-0.653L0.151,-0.653C0.172,-0.653 0.194,-0.653 0.218,-0.653C0.241,-0.652 0.265,-0.651 0.288,-0.649C0.311,-0.647 0.334,-0.644 0.355,-0.641C0.376,-0.637 0.393,-0.632 0.407,-0.626C0.437,-0.613 0.464,-0.596 0.489,-0.576C0.513,-0.555 0.534,-0.532 0.551,-0.506C0.568,-0.48 0.581,-0.452 0.59,-0.421C0.599,-0.39 0.604,-0.359 0.604,-0.326C0.604,-0.291 0.598,-0.257 0.587,-0.223Z" style="fill:white;fill-rule:nonzero;"/>
                    </g>
                    <g transform="matrix(99.4108,0,0,99.4108,164.952,208.273)">
                        <path d="M0.601,-0.238L0.601,-0.054C0.601,-0.054 0.601,-0.054 0.6,-0.053L0.564,-0.002L0.563,-0.001C0.562,-0.001 0.562,-0.001 0.562,-0L0.043,-0C0.039,-0 0.037,-0.002 0.037,-0.006L0.037,-0.648C0.037,-0.648 0.037,-0.648 0.038,-0.649L0.074,-0.699L0.074,-0.7L0.075,-0.701L0.076,-0.701C0.076,-0.701 0.076,-0.701 0.077,-0.702L0.554,-0.702C0.558,-0.702 0.56,-0.7 0.56,-0.696L0.56,-0.514C0.56,-0.513 0.56,-0.513 0.559,-0.513L0.559,-0.512L0.516,-0.462C0.515,-0.461 0.513,-0.46 0.511,-0.46L0.443,-0.46L0.443,-0.368C0.443,-0.367 0.443,-0.367 0.443,-0.367C0.442,-0.366 0.442,-0.366 0.442,-0.365L0.441,-0.364L0.441,-0.363L0.39,-0.313L0.386,-0.311L0.3,-0.311L0.3,-0.242L0.597,-0.242C0.597,-0.242 0.597,-0.242 0.598,-0.241L0.599,-0.241L0.6,-0.24L0.6,-0.239C0.601,-0.239 0.601,-0.239 0.601,-0.238ZM0.589,-0.217L0.566,-0.184L0.566,-0.025L0.589,-0.058L0.589,-0.217ZM0.294,-0.23C0.29,-0.23 0.288,-0.232 0.288,-0.236L0.288,-0.311L0.253,-0.311L0.253,-0.192L0.556,-0.192L0.583,-0.23L0.294,-0.23ZM0.43,-0.46L0.392,-0.46L0.392,-0.332L0.43,-0.37L0.43,-0.46ZM0.548,-0.69L0.082,-0.69L0.055,-0.652L0.508,-0.652C0.512,-0.652 0.514,-0.65 0.514,-0.646L0.514,-0.478L0.548,-0.518L0.548,-0.69Z" style="fill:white;fill-rule:nonzero;"/>
                    </g>
                    <g transform="matrix(99.4108,0,0,99.4108,227.581,208.273)">
                        <path d="M0.558,-0.385C0.585,-0.357 0.602,-0.324 0.609,-0.286C0.616,-0.249 0.613,-0.212 0.598,-0.176C0.598,-0.176 0.598,-0.176 0.597,-0.175C0.597,-0.174 0.597,-0.173 0.596,-0.172C0.596,-0.171 0.596,-0.17 0.595,-0.17L0.595,-0.169C0.578,-0.131 0.555,-0.098 0.528,-0.069L0.525,-0.066C0.499,-0.037 0.472,-0.019 0.444,-0.012C0.415,-0.004 0.386,-0 0.357,-0L0.282,-0.002L0.026,-0.002C0.024,-0.002 0.023,-0.002 0.022,-0.003C0.021,-0.003 0.021,-0.003 0.021,-0.004L0.02,-0.005L0.02,-0.007L0.019,-0.008L0.02,-0.008L0.02,-0.011L0.021,-0.011L0.056,-0.062L0.254,-0.327L0.244,-0.327C0.241,-0.327 0.237,-0.327 0.234,-0.326C0.218,-0.326 0.202,-0.326 0.187,-0.327C0.172,-0.327 0.157,-0.329 0.142,-0.333C0.127,-0.336 0.113,-0.342 0.099,-0.351C0.084,-0.36 0.071,-0.372 0.058,-0.389C0.039,-0.413 0.027,-0.44 0.024,-0.47C0.02,-0.501 0.024,-0.53 0.037,-0.558C0.037,-0.558 0.037,-0.558 0.038,-0.559L0.041,-0.565C0.048,-0.582 0.057,-0.597 0.068,-0.612C0.078,-0.626 0.09,-0.64 0.103,-0.653C0.116,-0.667 0.129,-0.678 0.142,-0.685C0.155,-0.692 0.168,-0.697 0.182,-0.7C0.195,-0.703 0.21,-0.704 0.225,-0.704L0.537,-0.704C0.537,-0.703 0.537,-0.703 0.538,-0.703L0.539,-0.703L0.539,-0.702L0.54,-0.702L0.54,-0.701L0.541,-0.7L0.541,-0.696C0.541,-0.696 0.541,-0.696 0.54,-0.695L0.54,-0.694L0.505,-0.644L0.357,-0.447L0.364,-0.447C0.381,-0.447 0.398,-0.447 0.415,-0.446C0.432,-0.445 0.448,-0.443 0.465,-0.44C0.481,-0.436 0.497,-0.43 0.513,-0.422C0.528,-0.413 0.543,-0.401 0.558,-0.385ZM0.277,-0.691L0.231,-0.691C0.216,-0.691 0.202,-0.69 0.189,-0.688C0.176,-0.685 0.163,-0.681 0.15,-0.674C0.137,-0.667 0.125,-0.657 0.112,-0.644C0.109,-0.641 0.106,-0.639 0.103,-0.636C0.101,-0.633 0.099,-0.631 0.097,-0.628C0.108,-0.636 0.12,-0.642 0.132,-0.645C0.143,-0.648 0.155,-0.651 0.167,-0.652C0.179,-0.653 0.191,-0.654 0.203,-0.654L0.497,-0.654L0.523,-0.692L0.314,-0.692L0.277,-0.691ZM0.542,-0.311C0.559,-0.286 0.57,-0.259 0.575,-0.23C0.579,-0.201 0.577,-0.173 0.569,-0.145C0.572,-0.15 0.575,-0.156 0.578,-0.161C0.58,-0.166 0.582,-0.172 0.585,-0.177C0.6,-0.211 0.604,-0.246 0.597,-0.282C0.59,-0.318 0.574,-0.35 0.549,-0.377C0.535,-0.392 0.521,-0.403 0.506,-0.411C0.492,-0.419 0.477,-0.425 0.462,-0.428C0.447,-0.431 0.431,-0.433 0.414,-0.434C0.398,-0.435 0.381,-0.435 0.364,-0.435L0.348,-0.435L0.32,-0.397L0.325,-0.397C0.346,-0.397 0.366,-0.397 0.386,-0.396C0.405,-0.395 0.424,-0.392 0.443,-0.387C0.461,-0.382 0.478,-0.373 0.495,-0.362C0.511,-0.35 0.527,-0.333 0.542,-0.311Z" style="fill:white;fill-rule:nonzero;"/>
                    </g>
                    <g transform="matrix(99.4108,0,0,99.4108,290.706,208.273)">
                        <path d="M0.307,-0.705C0.311,-0.705 0.313,-0.703 0.313,-0.699L0.313,-0.056C0.312,-0.056 0.312,-0.056 0.312,-0.055L0.277,-0.005L0.276,-0.005C0.276,-0.004 0.276,-0.004 0.275,-0.003L0.274,-0.003C0.274,-0.003 0.273,-0.003 0.272,-0.002L0.046,-0.002C0.042,-0.002 0.04,-0.004 0.04,-0.009L0.04,-0.649C0.041,-0.649 0.041,-0.649 0.041,-0.65L0.041,-0.652L0.077,-0.702L0.077,-0.703L0.078,-0.703L0.079,-0.704L0.08,-0.704L0.081,-0.705L0.307,-0.705ZM0.277,-0.028L0.3,-0.061L0.3,-0.693L0.085,-0.693L0.058,-0.655L0.271,-0.655C0.275,-0.655 0.277,-0.653 0.277,-0.648L0.277,-0.028Z" style="fill:white;fill-rule:nonzero;"/>
                    </g>
                    <g transform="matrix(99.4108,0,0,99.4108,325.898,208.273)">
                        <path d="M0.707,-0.379L0.707,-0.376C0.707,-0.338 0.702,-0.304 0.692,-0.273C0.681,-0.242 0.665,-0.212 0.643,-0.182L0.636,-0.172C0.609,-0.119 0.569,-0.077 0.517,-0.046C0.464,-0.015 0.406,-0 0.342,-0C0.313,-0 0.282,-0.004 0.252,-0.012C0.221,-0.02 0.191,-0.033 0.163,-0.052C0.135,-0.071 0.11,-0.095 0.086,-0.124C0.064,-0.153 0.046,-0.19 0.033,-0.233C0.016,-0.292 0.013,-0.348 0.025,-0.402C0.037,-0.456 0.063,-0.504 0.103,-0.546C0.132,-0.594 0.171,-0.632 0.219,-0.659C0.267,-0.686 0.319,-0.701 0.376,-0.702L0.381,-0.702C0.437,-0.702 0.489,-0.689 0.537,-0.663C0.585,-0.637 0.624,-0.601 0.654,-0.554C0.655,-0.554 0.655,-0.554 0.655,-0.553L0.655,-0.549C0.655,-0.548 0.655,-0.548 0.654,-0.548L0.654,-0.547L0.619,-0.497L0.618,-0.497L0.617,-0.496L0.443,-0.382L0.703,-0.382L0.704,-0.381L0.705,-0.381C0.705,-0.38 0.705,-0.38 0.706,-0.38C0.706,-0.379 0.706,-0.379 0.707,-0.379ZM0.672,-0.324C0.671,-0.307 0.67,-0.29 0.668,-0.275C0.666,-0.259 0.663,-0.243 0.658,-0.228C0.68,-0.268 0.692,-0.311 0.694,-0.356L0.672,-0.324ZM0.424,-0.37L0.366,-0.332L0.663,-0.332L0.689,-0.37L0.424,-0.37ZM0.376,-0.69C0.331,-0.689 0.289,-0.679 0.25,-0.661C0.21,-0.643 0.176,-0.618 0.147,-0.585C0.177,-0.607 0.21,-0.624 0.245,-0.636C0.28,-0.648 0.315,-0.654 0.352,-0.654C0.405,-0.654 0.454,-0.642 0.499,-0.618C0.544,-0.593 0.582,-0.558 0.614,-0.512L0.642,-0.551C0.612,-0.596 0.574,-0.63 0.527,-0.655C0.48,-0.68 0.43,-0.691 0.376,-0.69Z" style="fill:white;fill-rule:nonzero;"/>
                    </g>
                    <g transform="matrix(99.4108,0,0,99.4108,398.07,208.273)">
                        <path d="M0.629,-0.703C0.633,-0.703 0.635,-0.701 0.635,-0.697L0.635,-0.055C0.634,-0.055 0.634,-0.055 0.634,-0.054C0.634,-0.054 0.634,-0.054 0.633,-0.053L0.587,-0.003L0.585,-0.001L0.039,-0.001C0.035,-0.001 0.033,-0.003 0.033,-0.007L0.033,-0.647C0.033,-0.648 0.033,-0.648 0.034,-0.649C0.034,-0.649 0.034,-0.649 0.034,-0.65L0.07,-0.7L0.07,-0.701L0.071,-0.701C0.071,-0.702 0.071,-0.702 0.072,-0.702C0.072,-0.702 0.072,-0.702 0.073,-0.703L0.076,-0.703C0.077,-0.703 0.077,-0.703 0.077,-0.703C0.077,-0.702 0.077,-0.702 0.078,-0.702L0.079,-0.702L0.357,-0.466L0.357,-0.649C0.358,-0.649 0.358,-0.649 0.358,-0.65L0.394,-0.7L0.394,-0.701C0.394,-0.701 0.394,-0.701 0.395,-0.702L0.396,-0.702L0.397,-0.703L0.629,-0.703ZM0.623,-0.691L0.402,-0.691L0.375,-0.653L0.583,-0.653C0.587,-0.653 0.589,-0.651 0.589,-0.647L0.589,-0.023L0.623,-0.06L0.623,-0.691ZM0.357,-0.45L0.076,-0.688L0.048,-0.648L0.357,-0.386L0.357,-0.45Z" style="fill:white;fill-rule:nonzero;"/>
                    </g>
                </g>
                <g transform="matrix(1.73659,0,0,1.73659,-75.3996,3.76674)">
                    <g transform="matrix(99.4108,0,0,99.4108,99.3407,208.273)">
                        <path d="M0.551,-0.703C0.555,-0.703 0.557,-0.701 0.557,-0.697L0.557,-0.517C0.557,-0.514 0.556,-0.512 0.554,-0.511L0.509,-0.463C0.508,-0.462 0.507,-0.461 0.505,-0.461L0.432,-0.461L0.432,-0.367C0.432,-0.366 0.432,-0.366 0.432,-0.366C0.431,-0.366 0.431,-0.366 0.431,-0.365L0.386,-0.314C0.385,-0.313 0.383,-0.312 0.382,-0.312L0.303,-0.312L0.303,-0.055C0.303,-0.054 0.303,-0.054 0.302,-0.054C0.302,-0.053 0.302,-0.053 0.301,-0.053L0.246,-0.002C0.245,-0.001 0.244,-0.001 0.242,-0.001L0.038,-0.001C0.033,-0.001 0.031,-0.003 0.031,-0.007L0.031,-0.647L0.032,-0.647L0.032,-0.65L0.033,-0.65L0.068,-0.7L0.068,-0.701C0.069,-0.701 0.069,-0.701 0.069,-0.702L0.07,-0.702C0.071,-0.702 0.071,-0.702 0.071,-0.703L0.551,-0.703ZM0.291,-0.312L0.247,-0.312L0.247,-0.02L0.291,-0.06L0.291,-0.312ZM0.42,-0.461L0.387,-0.461L0.387,-0.333L0.42,-0.371L0.42,-0.461ZM0.545,-0.52L0.545,-0.691L0.076,-0.691L0.049,-0.653L0.502,-0.653C0.506,-0.653 0.508,-0.651 0.508,-0.647L0.508,-0.48L0.545,-0.52Z" style="fill:white;fill-rule:nonzero;"/>
                    </g>
                    <g transform="matrix(99.4108,0,0,99.4108,156.899,208.273)">
                        <path d="M0.601,-0.238L0.601,-0.054C0.601,-0.054 0.601,-0.054 0.6,-0.053L0.564,-0.002L0.563,-0.001C0.562,-0.001 0.562,-0.001 0.562,-0L0.043,-0C0.039,-0 0.037,-0.002 0.037,-0.006L0.037,-0.648C0.037,-0.648 0.037,-0.648 0.038,-0.649L0.074,-0.699L0.074,-0.7L0.075,-0.701L0.076,-0.701C0.076,-0.701 0.076,-0.701 0.077,-0.702L0.554,-0.702C0.558,-0.702 0.56,-0.7 0.56,-0.696L0.56,-0.514C0.56,-0.513 0.56,-0.513 0.559,-0.513L0.559,-0.512L0.516,-0.462C0.515,-0.461 0.513,-0.46 0.511,-0.46L0.443,-0.46L0.443,-0.368C0.443,-0.367 0.443,-0.367 0.443,-0.367C0.442,-0.366 0.442,-0.366 0.442,-0.365L0.441,-0.364L0.441,-0.363L0.39,-0.313L0.386,-0.311L0.3,-0.311L0.3,-0.242L0.597,-0.242C0.597,-0.242 0.597,-0.242 0.598,-0.241L0.599,-0.241L0.6,-0.24L0.6,-0.239C0.601,-0.239 0.601,-0.239 0.601,-0.238ZM0.589,-0.217L0.566,-0.184L0.566,-0.025L0.589,-0.058L0.589,-0.217ZM0.294,-0.23C0.29,-0.23 0.288,-0.232 0.288,-0.236L0.288,-0.311L0.253,-0.311L0.253,-0.192L0.556,-0.192L0.583,-0.23L0.294,-0.23ZM0.43,-0.46L0.392,-0.46L0.392,-0.332L0.43,-0.37L0.43,-0.46ZM0.548,-0.69L0.082,-0.69L0.055,-0.652L0.508,-0.652C0.512,-0.652 0.514,-0.65 0.514,-0.646L0.514,-0.478L0.548,-0.518L0.548,-0.69Z" style="fill:white;fill-rule:nonzero;"/>
                    </g>
                    <g transform="matrix(99.4108,0,0,99.4108,219.528,208.273)">
                        <path d="M0.558,-0.385C0.585,-0.357 0.602,-0.324 0.609,-0.286C0.616,-0.249 0.613,-0.212 0.598,-0.176C0.598,-0.176 0.598,-0.176 0.597,-0.175C0.597,-0.174 0.597,-0.173 0.596,-0.172C0.596,-0.171 0.596,-0.17 0.595,-0.17L0.595,-0.169C0.578,-0.131 0.555,-0.098 0.528,-0.069L0.525,-0.066C0.499,-0.037 0.472,-0.019 0.444,-0.012C0.415,-0.004 0.386,-0 0.357,-0L0.282,-0.002L0.026,-0.002C0.024,-0.002 0.023,-0.002 0.022,-0.003C0.021,-0.003 0.021,-0.003 0.021,-0.004L0.02,-0.005L0.02,-0.007L0.019,-0.008L0.02,-0.008L0.02,-0.011L0.021,-0.011L0.056,-0.062L0.254,-0.327L0.244,-0.327C0.241,-0.327 0.237,-0.327 0.234,-0.326C0.218,-0.326 0.202,-0.326 0.187,-0.327C0.172,-0.327 0.157,-0.329 0.142,-0.333C0.127,-0.336 0.113,-0.342 0.099,-0.351C0.084,-0.36 0.071,-0.372 0.058,-0.389C0.039,-0.413 0.027,-0.44 0.024,-0.47C0.02,-0.501 0.024,-0.53 0.037,-0.558C0.037,-0.558 0.037,-0.558 0.038,-0.559L0.041,-0.565C0.048,-0.582 0.057,-0.597 0.068,-0.612C0.078,-0.626 0.09,-0.64 0.103,-0.653C0.116,-0.667 0.129,-0.678 0.142,-0.685C0.155,-0.692 0.168,-0.697 0.182,-0.7C0.195,-0.703 0.21,-0.704 0.225,-0.704L0.537,-0.704C0.537,-0.703 0.537,-0.703 0.538,-0.703L0.539,-0.703L0.539,-0.702L0.54,-0.702L0.54,-0.701L0.541,-0.7L0.541,-0.696C0.541,-0.696 0.541,-0.696 0.54,-0.695L0.54,-0.694L0.505,-0.644L0.357,-0.447L0.364,-0.447C0.381,-0.447 0.398,-0.447 0.415,-0.446C0.432,-0.445 0.448,-0.443 0.465,-0.44C0.481,-0.436 0.497,-0.43 0.513,-0.422C0.528,-0.413 0.543,-0.401 0.558,-0.385ZM0.277,-0.691L0.231,-0.691C0.216,-0.691 0.202,-0.69 0.189,-0.688C0.176,-0.685 0.163,-0.681 0.15,-0.674C0.137,-0.667 0.125,-0.657 0.112,-0.644C0.109,-0.641 0.106,-0.639 0.103,-0.636C0.101,-0.633 0.099,-0.631 0.097,-0.628C0.108,-0.636 0.12,-0.642 0.132,-0.645C0.143,-0.648 0.155,-0.651 0.167,-0.652C0.179,-0.653 0.191,-0.654 0.203,-0.654L0.497,-0.654L0.523,-0.692L0.314,-0.692L0.277,-0.691ZM0.542,-0.311C0.559,-0.286 0.57,-0.259 0.575,-0.23C0.579,-0.201 0.577,-0.173 0.569,-0.145C0.572,-0.15 0.575,-0.156 0.578,-0.161C0.58,-0.166 0.582,-0.172 0.585,-0.177C0.6,-0.211 0.604,-0.246 0.597,-0.282C0.59,-0.318 0.574,-0.35 0.549,-0.377C0.535,-0.392 0.521,-0.403 0.506,-0.411C0.492,-0.419 0.477,-0.425 0.462,-0.428C0.447,-0.431 0.431,-0.433 0.414,-0.434C0.398,-0.435 0.381,-0.435 0.364,-0.435L0.348,-0.435L0.32,-0.397L0.325,-0.397C0.346,-0.397 0.366,-0.397 0.386,-0.396C0.405,-0.395 0.424,-0.392 0.443,-0.387C0.461,-0.382 0.478,-0.373 0.495,-0.362C0.511,-0.35 0.527,-0.333 0.542,-0.311Z" style="fill:white;fill-rule:nonzero;"/>
                    </g>
                    <g transform="matrix(99.4108,0,0,99.4108,282.654,208.273)">
                        <path d="M0.467,-0.549L0.467,-0.059C0.467,-0.056 0.466,-0.055 0.465,-0.054L0.415,-0.004L0.411,-0.002L0.186,-0.002C0.182,-0.002 0.18,-0.004 0.18,-0.008L0.18,-0.421L0.032,-0.355C0.03,-0.354 0.028,-0.354 0.026,-0.356C0.024,-0.357 0.023,-0.358 0.023,-0.361L0.023,-0.647C0.023,-0.648 0.023,-0.648 0.024,-0.649C0.024,-0.649 0.024,-0.649 0.024,-0.65L0.06,-0.7C0.061,-0.702 0.062,-0.703 0.065,-0.703L0.709,-0.703C0.711,-0.703 0.713,-0.702 0.714,-0.7C0.715,-0.697 0.715,-0.695 0.714,-0.693L0.678,-0.643L0.676,-0.641L0.467,-0.549ZM0.041,-0.653L0.67,-0.653L0.697,-0.691L0.068,-0.691L0.041,-0.653ZM0.455,-0.543L0.417,-0.526L0.417,-0.023L0.455,-0.061L0.455,-0.543Z" style="fill:white;fill-rule:nonzero;"/>
                    </g>
                </g>
            </g>
            <g transform="matrix(1.38375,0,0,1.38375,-51.1077,-147.741)">
                <g id="cr_logo_h_positve" transform="matrix(0.0945702,0,0,0.0945702,326.004,442.236)">
                    <g transform="matrix(1,0,0,1,-1091,-215)">
                        <clipPath id="_clip1">
                            <rect x="0" y="0" width="2182" height="430"/>
                        </clipPath>
                        <g clip-path="url(#_clip1)">
                            <g>
                                <g transform="matrix(1,0,0,1,-69.7868,0)">
                                    <g>
                                        <path d="M1585,276.7L1581.1,276.6C1576.6,276.6 1574,274.4 1574,269.5L1574,191.8C1574,157 1561.8,129.6 1510.5,129.6C1496.3,129.6 1457.6,134.4 1457.6,157L1457.6,164.4C1457.6,170.2 1462.3,174.9 1468.1,174.9C1473.9,174.9 1478.6,170.2 1478.6,164.4L1478.6,162.1C1478.6,150.2 1502.1,147.9 1510.2,147.9C1539.9,147.9 1552.1,159.8 1552.1,193.7L1552.1,195.6L1543.1,195.6C1515.1,195.6 1443.8,197.5 1443.8,251.4C1443.8,283.6 1471.8,299.4 1498.9,299.4C1539.5,299.4 1553.1,264.3 1552.7,264.3L1553.3,264.3C1553.3,264.3 1553,269.1 1553,276.2C1553,289.4 1558.5,295.5 1572.3,295.5L1584.9,295.5C1590.1,295.5 1594.4,291.2 1594.4,286C1594.5,280.9 1590.2,276.7 1585,276.7ZM1552.1,220.6C1552.1,248.6 1533.4,280.9 1502.5,280.9C1478.3,280.9 1466.4,265.4 1466.4,250.3C1466.4,213.9 1517.3,213.2 1542.8,213.2L1552.1,213.2L1552.1,220.6Z" style="fill:white;fill-rule:nonzero;"/>
                                        <path d="M1210.3,276.7L1206.4,276.6C1201.9,276.6 1199.3,274.4 1199.3,269.5L1199.3,191.8C1199.3,157 1187.1,129.6 1135.8,129.6C1121.6,129.6 1082.9,134.4 1082.9,157L1082.9,164.4C1082.9,170.2 1087.6,174.9 1093.4,174.9C1099.2,174.9 1103.9,170.2 1103.9,164.4L1103.9,162.1C1103.9,150.2 1127.4,147.9 1135.5,147.9C1165.2,147.9 1177.4,159.8 1177.4,193.7L1177.4,195.6L1168.4,195.6C1140.4,195.6 1069.1,197.5 1069.1,251.4C1069.1,283.6 1097.1,299.4 1124.2,299.4C1164.8,299.4 1178.4,264.3 1178,264.3L1178.6,264.3C1178.6,264.3 1178.3,269.1 1178.3,276.2C1178.3,289.4 1183.8,295.5 1197.6,295.5L1210.2,295.5C1215.4,295.5 1219.7,291.2 1219.7,286C1219.8,280.9 1215.5,276.7 1210.3,276.7ZM1177.4,220.6C1177.4,248.6 1158.7,280.9 1127.8,280.9C1103.6,280.9 1091.7,265.4 1091.7,250.3C1091.7,213.9 1142.6,213.2 1168.1,213.2L1177.4,213.2L1177.4,220.6Z" style="fill:white;fill-rule:nonzero;"/>
                                        <path d="M1066.2,286.2C1066.2,280.8 1061.8,276.6 1056.5,276.6L1043.8,276.6C1039.2,276.6 1036.6,274.3 1036.6,269.4L1036.6,193.4C1036.6,152.8 1022.2,129.6 981.3,129.6C942.7,129.6 921.7,156.1 915.8,171.2L915.1,171.2C915.1,171.2 915.8,166 915.8,159.4L915.8,151.9C915.8,139.5 909.6,133.6 895.8,133.6L872.9,133.6L872.9,133.7L872.7,133.7C867.4,133.7 863,138 863,143.4C863,148.7 867.3,153.1 872.7,153.1C872.9,153.1 873.1,153 873.4,153L886.7,153C891.3,153 893.9,155.6 893.9,160.2L893.9,289.5C893.9,295.7 898.9,300.7 905.1,300.7C911.3,300.7 916.3,295.7 916.3,289.5C916.3,289.1 916.3,288.7 916.2,288.4L916.2,219.4C916.2,211.5 916.9,204 918.8,197.1C926.3,169.9 950.6,150.6 978.7,150.6C1010.5,150.6 1014.4,173.5 1014.4,199.4L1014.4,276C1014.4,290.1 1020.3,296 1034.4,296L1057.2,295.9L1057.6,295.9C1062.3,295.3 1066.2,291.3 1066.2,286.2Z" style="fill:white;fill-rule:nonzero;"/>
                                        <path d="M865.3,276.7L861.4,276.6C856.9,276.6 854.3,274.4 854.3,269.5L854.3,191.8C854.3,157 842.1,129.6 790.8,129.6C776.6,129.6 737.9,134.4 737.9,157L737.9,164.4C737.9,170.2 742.6,174.9 748.4,174.9C754.2,174.9 758.9,170.2 758.9,164.4L758.9,162.1C758.9,150.2 782.4,147.9 790.5,147.9C820.2,147.9 832.4,159.8 832.4,193.7L832.4,195.6L823.4,195.6C795.4,195.6 724.1,197.5 724.1,251.4C724.1,283.6 752.1,299.4 779.2,299.4C819.8,299.4 833.4,264.3 833,264.3L833.6,264.3C833.6,264.3 833.3,269.1 833.3,276.2C833.3,289.4 838.8,295.5 852.6,295.5L865.2,295.5C870.4,295.5 874.7,291.2 874.7,286C874.8,280.9 870.6,276.7 865.3,276.7ZM832.5,220.6C832.5,248.6 813.8,280.9 782.9,280.9C758.7,280.9 746.8,265.4 746.8,250.3C746.8,213.9 797.7,213.2 823.2,213.2L832.5,213.2L832.5,220.6Z" style="fill:white;fill-rule:nonzero;"/>
                                        <path d="M1427.8,277.2C1415.5,277.2 1391.4,272.3 1391.4,234.3L1391.4,151.8L1424,151.8C1429.1,151.8 1433.2,147.7 1433.2,142.6C1433.2,137.5 1429.1,133.4 1424,133.4L1391.4,133.4L1391.4,96.7C1391.4,90.7 1386.6,85.9 1380.6,85.9C1374.6,85.9 1369.8,90.7 1369.8,96.7L1369.8,133.4L1356.3,133.4C1351.2,133.4 1347.1,137.5 1347.1,142.6C1347.1,147.7 1351.2,151.8 1356.3,151.8L1369.5,151.8L1369.5,236.6C1369.5,290.8 1407.2,296.9 1425.9,296.9L1427.8,296.9C1433.2,296.9 1437.6,292.5 1437.6,287.1C1437.6,281.6 1433.2,277.2 1427.8,277.2Z" style="fill:white;fill-rule:nonzero;"/>
                                        <path d="M1248.3,172.2C1248.3,156.4 1261.8,148.7 1284.4,148.7C1295,148.7 1312.4,153.2 1312.4,165.1L1312.4,168C1312.4,173.7 1317,178.3 1322.7,178.3C1328.4,178.3 1333,173.7 1333,168L1333,159C1333,136.1 1300.1,129.7 1283.7,129.7C1251.1,129.7 1226,144.2 1226,173.5C1226,225.7 1316.9,219.3 1316.9,254.7C1316.9,271.8 1300.8,280.5 1282.7,280.5C1262.3,280.5 1247.5,270.5 1239.6,263.2C1237.9,261.8 1235.7,260.9 1233.3,260.9C1227.8,260.9 1223.4,265.3 1223.4,270.8C1223.4,273.9 1224.8,276.6 1227,278.4C1236,286.8 1254.3,299.4 1282.5,299.4C1314.7,299.4 1339.2,281 1339.2,254C1339.2,200.2 1248.3,208.6 1248.3,172.2Z" style="fill:white;fill-rule:nonzero;"/>
                                        <path d="M707.3,271.7C707.3,266.3 702.9,261.9 697.5,261.9C694.8,261.9 692.4,263 690.7,264.7C682,271.3 667.3,279.5 647.4,279.5C613.2,279.5 583.9,254.7 583.9,214.7C583.9,175.4 611.9,149.3 646.8,149.3C660.3,149.3 683.9,155.7 683.9,169.3L683.9,170.6C683.9,176.3 688.5,180.9 694.2,180.9C699.9,180.9 704.5,176.3 704.5,170.6L704.5,164.1C704.5,137.4 665.2,129.6 646.8,129.6C598.4,129.6 561.4,165.1 561.4,214.7C561.4,265 598.2,299.5 646.5,299.5C674.2,299.5 693.1,287.8 702.7,280C705.4,278.3 707.3,275.2 707.3,271.7Z" style="fill:white;fill-rule:nonzero;"/>
                                    </g>
                                    <g>
                                        <g>
                                            <path d="M2172.5,276.7L2168.6,276.6C2164.1,276.6 2161.5,274.4 2161.5,269.5L2161.5,191.8C2161.5,157 2149.3,129.6 2098,129.6C2083.8,129.6 2045.1,134.4 2045.1,157L2045.1,164.4C2045.1,170.2 2049.8,174.9 2055.6,174.9C2061.4,174.9 2066.1,170.2 2066.1,164.4L2066.1,162.1C2066.1,150.2 2089.6,147.9 2097.7,147.9C2127.4,147.9 2139.6,159.8 2139.6,193.7L2139.6,195.6L2130.6,195.6C2102.6,195.6 2031.3,197.5 2031.3,251.4C2031.3,283.6 2059.3,299.4 2086.4,299.4C2127,299.4 2140.6,264.3 2140.2,264.3L2140.9,264.3C2140.9,264.3 2140.6,269.1 2140.6,276.2C2140.6,289.4 2146.1,295.5 2159.9,295.5L2172.5,295.5C2177.7,295.5 2182,291.2 2182,286C2182,280.9 2177.7,276.7 2172.5,276.7ZM2139.6,220.6C2139.6,248.6 2120.9,280.9 2090,280.9C2065.8,280.9 2053.9,265.4 2053.9,250.3C2053.9,213.9 2104.8,213.2 2130.3,213.2L2139.7,213.2L2139.7,220.6L2139.6,220.6Z" style="fill:white;fill-rule:nonzero;"/>
                                            <path d="M1923.4,172.2C1923.4,156.4 1936.9,148.7 1959.5,148.7C1970.1,148.7 1987.5,153.2 1987.5,165.1L1987.5,168C1987.5,173.7 1992.1,178.3 1997.8,178.3C2003.5,178.3 2008.1,173.7 2008.1,168L2008.1,159C2008.1,136.1 1975.2,129.7 1958.8,129.7C1926.3,129.7 1901.1,144.2 1901.1,173.5C1901.1,225.7 1992,219.3 1992,254.7C1992,271.8 1975.9,280.5 1957.8,280.5C1937.4,280.5 1922.6,270.5 1914.7,263.2C1913,261.8 1910.8,260.9 1908.4,260.9C1902.9,260.9 1898.5,265.3 1898.5,270.8C1898.5,273.9 1899.9,276.6 1902.1,278.4C1911.1,286.8 1929.4,299.4 1957.6,299.4C1989.8,299.4 2014.3,281 2014.3,254C2014.3,200.2 1923.4,208.6 1923.4,172.2Z" style="fill:white;fill-rule:nonzero;"/>
                                            <path d="M1794.1,129.7C1841.5,129.7 1879.8,165.8 1879.8,213.8C1879.8,262.8 1841.4,299.5 1794.4,299.5C1747,299.5 1708.7,262.8 1708.7,213.8C1708.7,165.8 1747,129.7 1794.1,129.7ZM1794.4,279.9C1828.9,279.9 1857.3,251.5 1857.3,213.8C1857.3,177.1 1828.9,149.7 1794.4,149.7C1759.6,149.7 1731.2,177.1 1731.2,213.8C1731.3,251.5 1759.6,279.9 1794.4,279.9Z" style="fill:white;fill-rule:nonzero;"/>
                                            <path d="M1701.3,131.4C1675.2,131.4 1656.6,150.6 1648.7,175.7L1648,175.7C1648,175.7 1648.7,170.1 1648.7,163.1L1648.7,151.8C1648.7,138.6 1642.4,132.9 1628.5,132.9L1613.6,132.9C1608.2,132.9 1603.8,137.3 1603.8,142.7C1603.8,148.1 1608.2,152.5 1613.6,152.5L1619.2,152.5C1623.8,152.5 1626.5,155.1 1626.5,159.8L1626.5,288.2C1626.5,294.4 1631.5,299.4 1637.7,299.4C1643.9,299.4 1649,294.4 1649,288.2L1649,229.3C1649,218.7 1650.3,207.5 1653.6,196.9C1660.8,172.6 1678.1,154.2 1701.2,153.9C1707.4,153.9 1712.4,148.9 1712.4,142.7C1712.5,136.5 1707.5,131.4 1701.3,131.4Z" style="fill:white;fill-rule:nonzero;"/>
                                        </g>
                                    </g>
                                </g>
                                <g>
                                    <g>
                                        <g>
                                            <path d="M0.443,214.289C0.828,95.627 97.479,-0.398 216.141,-0.013C334.803,0.373 430.828,97.024 430.443,215.686C430.057,334.348 333.406,430.373 214.744,429.987C96.082,429.602 0.057,332.951 0.443,214.289ZM337.4,213.7C337.4,208.5 333.2,204.3 328,204.3L310.1,204.3C305.7,204.3 301.8,207.4 300.9,211.7L282.9,297.2C282.2,300.4 278.4,303.5 275.1,303.5L155.8,303.5C152.5,303.5 148.7,300.4 148,297.2L130,211.7C129.1,207.4 125.3,204.3 120.8,204.3L102.9,204.3C97.7,204.3 93.5,208.5 93.5,213.7C93.5,218.9 97.7,223.1 102.9,223.1L111.3,223.1C112.4,223.1 113.4,224 113.7,225L129.8,301.2C132.3,313.1 143.8,322.4 156,322.4L275,322.4C287.2,322.4 298.7,313.1 301.2,301.2L317.3,225C317.5,223.9 318.6,223.1 319.7,223.1L328.1,223.1C333.2,223.1 337.4,218.9 337.4,213.7ZM206.7,279.3L206.7,247.7C206.7,244.5 204.1,241.9 200.9,241.9C197.7,241.9 195.1,244.5 195.1,247.7C195.1,247.8 195.1,247.9 195.2,248L195.2,279C195.2,279.1 195.1,279.2 195.1,279.3C195.1,282.5 197.7,285.1 200.9,285.1C204.1,285.1 206.7,282.5 206.7,279.3ZM265.1,279.2L265.1,247.7C265.1,244.5 262.5,241.9 259.3,241.9C256.1,241.9 253.5,244.5 253.5,247.7L253.5,279.2C253.5,282.4 256.1,285 259.3,285C262.5,285 265.1,282.4 265.1,279.2ZM235.9,279.2L235.9,247.7C235.9,244.5 233.3,241.9 230.1,241.9C226.9,241.9 224.3,244.5 224.3,247.7L224.3,279.2C224.3,282.4 226.9,285 230.1,285C233.3,285 235.9,282.4 235.9,279.2ZM177.5,279.2L177.5,247.7C177.5,244.5 174.9,241.9 171.7,241.9C168.5,241.9 165.9,244.5 165.9,247.7L165.9,279.2C165.9,282.4 168.5,285 171.7,285C174.9,285 177.5,282.4 177.5,279.2ZM286.9,174.5C284.5,137.1 253.5,107.5 215.5,107.5C177.5,107.5 146.6,137.1 144.1,174.5L144.1,223.2C144.1,229.3 149,234.2 155.1,234.2C161.2,234.2 166.1,229.3 166.1,223.2L166.1,179.1C166.1,151.9 188.2,129.8 215.4,129.8C242.6,129.8 264.7,151.9 264.7,179.1L264.7,223.2C264.7,229.3 269.6,234.2 275.8,234.2C281.9,234.2 286.8,229.3 286.8,223.2L286.8,174.5L286.9,174.5ZM253.5,204.3L177.5,204.3L177.5,223.1L253.5,223.1L253.5,204.3Z" style="fill:white;"/>
                                        </g>
                                    </g>
                                </g>
                            </g>
                        </g>
                    </g>
                </g>
                <g transform="matrix(1,0,0,1,148.947,-33.0895)">
                    <text x="134.865px" y="446.59px" style="font-family:'Sarabun-Light', 'Sarabun';font-weight:300;font-size:17.141px;fill:white;">P<tspan x="144.087px " y="446.59px ">o</tspan>wered b<tspan x="210.285px " y="446.59px ">y</tspan></text>
                </g>
            </g>
        </g>
    </g>
</svg>
